{
  "title": "GST Submission Structure 2020",
  "version": "1.0.0",
  "structure":  {
    "root_validation": {
      "min_length": 5,
      "max_length": 5
    },
    "subs": [
      {
        "name": "00Raw_data",
        "subs": [
          {
            "name": "DB"
          },
          {
            "name": "Delayed_heave"
          },
          {
            "name": "POSPAC"
          },
          {
            "name": "SBD"
          },
          {
            "name": "SSS"
          },
          {
            "name": "Tidevand"
          },
          {
            "name": "Vel"
          }
        ]
      },
      {
        "name": "01Metadata",
        "subs": [
          {
            "name": "01Følgeskrivelse"
          },
          {
            "name": "02Semanticsrapport"
          },
          {
            "name": "03Kalibringsrapport"
          },
          {
            "name": "04Applanixdata"
          }
        ]
      },
      {
        "name": "02Eft_u_vst"
      },
      {
        "name": "03Eft_m_vst"
      },
      {
        "name": "04Udt_m_vst"
      },
      {
        "name": "05Poly"
      },
      {
        "name": "06lis_fil"
      },
      {
        "name": "07QGIS",
        "subs": [
          {
            "name": "1_Efbh_data"
          },
          {
            "name": "2_Data_vektor"
          },
          {
            "name": "3_Oversigter"
          },
          {
            "name": "4_Søkort"
          },
          {
            "name": "5_Data_raster"
          }
        ]
      }
    ]
  }
}